{
  "apps": [{
    "name": "nodeapp",
    "script": "www/production.js",
    "cwd": "/root/yongxi/my_project_node/nodeapp",
    "exec_mode": "cluster",
    "instances": 0,
    "max_memory_restart": "1G",
    "autorestart": true,
    "node_args": [],
    "args": [],
    "env": {
      
    }
  }]
}